chip8emu initialized.
chip8emu: Loading ROM into memory:
0200: mov V0, 0x00
0202: mov V1, 0x00
0204: mov V2, 0x0B
0206: char V2
0208: drw V0, V1, 0x5
020A: mov V0, 0x05
020C: mov V1, 0x00
020E: mov V2, 0x0A
0210: char V2
0212: drw V0, V1, 0x5
0214: mov V0, 0x0A
0216: mov V1, 0x00
0218: mov V2, 0x0A
021A: char V2
021C: drw V0, V1, 0x5
021E: mov V0, 0x0F
0220: mov V1, 0x00
0222: mov V2, 0x0D
0224: char V2
0226: drw V0, V1, 0x5
0228: jmp 0x0228
022A: nop
022C: nop
022E: nop
0230: nop
0232: nop
0234: nop
0236: nop
0238: nop
023A: nop
023C: nop
023E: nop
0240: nop
0242: nop
0244: nop
0246: nop
0248: nop
024A: nop
024C: nop
024E: nop
0250: nop
0252: nop
0254: nop
0256: nop
0258: nop
025A: nop
025C: nop
025E: nop
0260: nop
0262: nop
0264: nop
0266: nop
0268: nop
026A: nop
026C: nop
026E: nop
0270: nop
0272: nop
0274: nop
0276: nop
0278: nop
027A: nop
027C: nop
027E: nop
0280: nop
0282: nop
0284: nop
0286: nop
0288: nop
028A: nop
028C: nop
028E: nop
0290: nop
0292: nop
0294: nop
0296: nop
0298: nop
029A: nop
029C: nop
029E: nop
02A0: nop
02A2: nop
02A4: nop
02A6: nop
02A8: nop
02AA: nop
02AC: nop
02AE: nop
02B0: nop
02B2: nop
02B4: nop
02B6: nop
02B8: nop
02BA: nop
02BC: nop
02BE: nop
02C0: nop
02C2: nop
02C4: nop
02C6: nop
02C8: nop
02CA: nop
02CC: nop
02CE: nop
02D0: nop
02D2: nop
02D4: nop
02D6: nop
02D8: nop
02DA: nop
02DC: nop
02DE: nop
02E0: nop
02E2: nop
02E4: nop
02E6: nop
02E8: nop
02EA: nop
02EC: nop
02EE: nop
02F0: nop
02F2: nop
02F4: nop
02F6: nop
02F8: nop
02FA: nop
02FC: nop
02FE: nop
0300: nop
0302: nop
0304: nop
0306: nop
0308: nop
030A: nop
030C: nop
030E: nop
0310: nop
0312: nop
0314: nop
0316: nop
0318: nop
031A: nop
031C: nop
031E: nop
0320: nop
0322: nop
0324: nop
0326: nop
0328: nop
032A: nop
032C: nop
032E: nop
0330: nop
0332: nop
0334: nop
0336: nop
0338: nop
033A: nop
033C: nop
033E: nop
0340: nop
0342: nop
0344: nop
0346: nop
0348: nop
034A: nop
034C: nop
034E: nop
0350: nop
0352: nop
0354: nop
0356: nop
0358: nop
035A: nop
035C: nop
035E: nop
0360: nop
0362: nop
0364: nop
0366: nop
0368: nop
036A: nop
036C: nop
036E: nop
0370: nop
0372: nop
0374: nop
0376: nop
0378: nop
037A: nop
037C: nop
037E: nop
0380: nop
0382: nop
0384: nop
0386: nop
0388: nop
038A: nop
038C: nop
038E: nop
0390: nop
0392: nop
0394: nop
0396: nop
0398: nop
039A: nop
039C: nop
039E: nop
03A0: nop
03A2: nop
03A4: nop
03A6: nop
03A8: nop
03AA: nop
03AC: nop
03AE: nop
03B0: nop
03B2: nop
03B4: nop
03B6: nop
03B8: nop
03BA: nop
03BC: nop
03BE: nop
03C0: nop
03C2: nop
03C4: nop
03C6: nop
03C8: nop
03CA: nop
03CC: nop
03CE: nop
03D0: nop
03D2: nop
03D4: nop
03D6: nop
03D8: nop
03DA: nop
03DC: nop
03DE: nop
03E0: nop
03E2: nop
03E4: nop
03E6: nop
03E8: nop
03EA: nop
03EC: nop
03EE: nop
03F0: nop
03F2: nop
03F4: nop
03F6: nop
03F8: nop
03FA: nop
03FC: nop
03FE: nop
0400: nop
0402: nop
0404: nop
0406: nop
0408: nop
040A: nop
040C: nop
040E: nop
0410: nop
0412: nop
0414: nop
0416: nop
0418: nop
041A: nop
041C: nop
041E: nop
0420: nop
0422: nop
0424: nop
0426: nop
0428: nop
042A: nop
042C: nop
042E: nop
0430: nop
0432: nop
0434: nop
0436: nop
0438: nop
043A: nop
043C: nop
043E: nop
0440: nop
0442: nop
0444: nop
0446: nop
0448: nop
044A: nop
044C: nop
044E: nop
0450: nop
0452: nop
0454: nop
0456: nop
0458: nop
045A: nop
045C: nop
045E: nop
0460: nop
0462: nop
0464: nop
0466: nop
0468: nop
046A: nop
046C: nop
046E: nop
0470: nop
0472: nop
0474: nop
0476: nop
0478: nop
047A: nop
047C: nop
047E: nop
0480: nop
0482: nop
0484: nop
0486: nop
0488: nop
048A: nop
048C: nop
048E: nop
0490: nop
0492: nop
0494: nop
0496: nop
0498: nop
049A: nop
049C: nop
049E: nop
04A0: nop
04A2: nop
04A4: nop
04A6: nop
04A8: nop
04AA: nop
04AC: nop
04AE: nop
04B0: nop
04B2: nop
04B4: nop
04B6: nop
04B8: nop
04BA: nop
04BC: nop
04BE: nop
04C0: nop
04C2: nop
04C4: nop
04C6: nop
04C8: nop
04CA: nop
04CC: nop
04CE: nop
04D0: nop
04D2: nop
04D4: nop
04D6: nop
04D8: nop
04DA: nop
04DC: nop
04DE: nop
04E0: nop
04E2: nop
04E4: nop
04E6: nop
04E8: nop
04EA: nop
04EC: nop
04EE: nop
04F0: nop
04F2: nop
04F4: nop
04F6: nop
04F8: nop
04FA: nop
04FC: nop
04FE: nop
0500: nop
0502: nop
0504: nop
0506: nop
0508: nop
050A: nop
050C: nop
050E: nop
0510: nop
0512: nop
0514: nop
0516: nop
0518: nop
051A: nop
051C: nop
051E: nop
0520: nop
0522: nop
0524: nop
0526: nop
0528: nop
052A: nop
052C: nop
052E: nop
0530: nop
0532: nop
0534: nop
0536: nop
0538: nop
053A: nop
053C: nop
053E: nop
0540: nop
0542: nop
0544: nop
0546: nop
0548: nop
054A: nop
054C: nop
054E: nop
0550: nop
0552: nop
0554: nop
0556: nop
0558: nop
055A: nop
055C: nop
055E: nop
0560: nop
0562: nop
0564: nop
0566: nop
0568: nop
056A: nop
056C: nop
056E: nop
0570: nop
0572: nop
0574: nop
0576: nop
0578: nop
057A: nop
057C: nop
057E: nop
0580: nop
0582: nop
0584: nop
0586: nop
0588: nop
058A: nop
058C: nop
058E: nop
0590: nop
0592: nop
0594: nop
0596: nop
0598: nop
059A: nop
059C: nop
059E: nop
05A0: nop
05A2: nop
05A4: nop
05A6: nop
05A8: nop
05AA: nop
05AC: nop
05AE: nop
05B0: nop
05B2: nop
05B4: nop
05B6: nop
05B8: nop
05BA: nop
05BC: nop
05BE: nop
05C0: nop
05C2: nop
05C4: nop
05C6: nop
05C8: nop
05CA: nop
05CC: nop
05CE: nop
05D0: nop
05D2: nop
05D4: nop
05D6: nop
05D8: nop
05DA: nop
05DC: nop
05DE: nop
05E0: nop
05E2: nop
05E4: nop
05E6: nop
05E8: nop
05EA: nop
05EC: nop
05EE: nop
05F0: nop
05F2: nop
05F4: nop
05F6: nop
05F8: nop
05FA: nop
05FC: nop
05FE: nop
0600: nop
0602: nop
0604: nop
0606: nop
0608: nop
060A: nop
060C: nop
060E: nop
0610: nop
0612: nop
0614: nop
0616: nop
0618: nop
061A: nop
061C: nop
061E: nop
0620: nop
0622: nop
0624: nop
0626: nop
0628: nop
062A: nop
062C: nop
062E: nop
0630: nop
0632: nop
0634: nop
0636: nop
0638: nop
063A: nop
063C: nop
063E: nop
0640: nop
0642: nop
0644: nop
0646: nop
0648: nop
064A: nop
064C: nop
064E: nop
0650: nop
0652: nop
0654: nop
0656: nop
0658: nop
065A: nop
065C: nop
065E: nop
0660: nop
0662: nop
0664: nop
0666: nop
0668: nop
066A: nop
066C: nop
066E: nop
0670: nop
0672: nop
0674: nop
0676: nop
0678: nop
067A: nop
067C: nop
067E: nop
0680: nop
0682: nop
0684: nop
0686: nop
0688: nop
068A: nop
068C: nop
068E: nop
0690: nop
0692: nop
0694: nop
0696: nop
0698: nop
069A: nop
069C: nop
069E: nop
06A0: nop
06A2: nop
06A4: nop
06A6: nop
06A8: nop
06AA: nop
06AC: nop
06AE: nop
06B0: nop
06B2: nop
06B4: nop
06B6: nop
06B8: nop
06BA: nop
06BC: nop
06BE: nop
06C0: nop
06C2: nop
06C4: nop
06C6: nop
06C8: nop
06CA: nop
06CC: nop
06CE: nop
06D0: nop
06D2: nop
06D4: nop
06D6: nop
06D8: nop
06DA: nop
06DC: nop
06DE: nop
06E0: nop
06E2: nop
06E4: nop
06E6: nop
06E8: nop
06EA: nop
06EC: nop
06EE: nop
06F0: nop
06F2: nop
06F4: nop
06F6: nop
06F8: nop
06FA: nop
06FC: nop
06FE: nop
0700: nop
0702: nop
0704: nop
0706: nop
0708: nop
070A: nop
070C: nop
070E: nop
0710: nop
0712: nop
0714: nop
0716: nop
0718: nop
071A: nop
071C: nop
071E: nop
0720: nop
0722: nop
0724: nop
0726: nop
0728: nop
072A: nop
072C: nop
072E: nop
0730: nop
0732: nop
0734: nop
0736: nop
0738: nop
073A: nop
073C: nop
073E: nop
0740: nop
0742: nop
0744: nop
0746: nop
0748: nop
074A: nop
074C: nop
074E: nop
0750: nop
0752: nop
0754: nop
0756: nop
0758: nop
075A: nop
075C: nop
075E: nop
0760: nop
0762: nop
0764: nop
0766: nop
0768: nop
076A: nop
076C: nop
076E: nop
0770: nop
0772: nop
0774: nop
0776: nop
0778: nop
077A: nop
077C: nop
077E: nop
0780: nop
0782: nop
0784: nop
0786: nop
0788: nop
078A: nop
078C: nop
078E: nop
0790: nop
0792: nop
0794: nop
0796: nop
0798: nop
079A: nop
079C: nop
079E: nop
07A0: nop
07A2: nop
07A4: nop
07A6: nop
07A8: nop
07AA: nop
07AC: nop
07AE: nop
07B0: nop
07B2: nop
07B4: nop
07B6: nop
07B8: nop
07BA: nop
07BC: nop
07BE: nop
07C0: nop
07C2: nop
07C4: nop
07C6: nop
07C8: nop
07CA: nop
07CC: nop
07CE: nop
07D0: nop
07D2: nop
07D4: nop
07D6: nop
07D8: nop
07DA: nop
07DC: nop
07DE: nop
07E0: nop
07E2: nop
07E4: nop
07E6: nop
07E8: nop
07EA: nop
07EC: nop
07EE: nop
07F0: nop
07F2: nop
07F4: nop
07F6: nop
07F8: nop
07FA: nop
07FC: nop
07FE: nop
0800: nop
0802: nop
0804: nop
0806: nop
0808: nop
080A: nop
080C: nop
080E: nop
0810: nop
0812: nop
0814: nop
0816: nop
0818: nop
081A: nop
081C: nop
081E: nop
0820: nop
0822: nop
0824: nop
0826: nop
0828: nop
082A: nop
082C: nop
082E: nop
0830: nop
0832: nop
0834: nop
0836: nop
0838: nop
083A: nop
083C: nop
083E: nop
0840: nop
0842: nop
0844: nop
0846: nop
0848: nop
084A: nop
084C: nop
084E: nop
0850: nop
0852: nop
0854: nop
0856: nop
0858: nop
085A: nop
085C: nop
085E: nop
0860: nop
0862: nop
0864: nop
0866: nop
0868: nop
086A: nop
086C: nop
086E: nop
0870: nop
0872: nop
0874: nop
0876: nop
0878: nop
087A: nop
087C: nop
087E: nop
0880: nop
0882: nop
0884: nop
0886: nop
0888: nop
088A: nop
088C: nop
088E: nop
0890: nop
0892: nop
0894: nop
0896: nop
0898: nop
089A: nop
089C: nop
089E: nop
08A0: nop
08A2: nop
08A4: nop
08A6: nop
08A8: nop
08AA: nop
08AC: nop
08AE: nop
08B0: nop
08B2: nop
08B4: nop
08B6: nop
08B8: nop
08BA: nop
08BC: nop
08BE: nop
08C0: nop
08C2: nop
08C4: nop
08C6: nop
08C8: nop
08CA: nop
08CC: nop
08CE: nop
08D0: nop
08D2: nop
08D4: nop
08D6: nop
08D8: nop
08DA: nop
08DC: nop
08DE: nop
08E0: nop
08E2: nop
08E4: nop
08E6: nop
08E8: nop
08EA: nop
08EC: nop
08EE: nop
08F0: nop
08F2: nop
08F4: nop
08F6: nop
08F8: nop
08FA: nop
08FC: nop
08FE: nop
0900: nop
0902: nop
0904: nop
0906: nop
0908: nop
090A: nop
090C: nop
090E: nop
0910: nop
0912: nop
0914: nop
0916: nop
0918: nop
091A: nop
091C: nop
091E: nop
0920: nop
0922: nop
0924: nop
0926: nop
0928: nop
092A: nop
092C: nop
092E: nop
0930: nop
0932: nop
0934: nop
0936: nop
0938: nop
093A: nop
093C: nop
093E: nop
0940: nop
0942: nop
0944: nop
0946: nop
0948: nop
094A: nop
094C: nop
094E: nop
0950: nop
0952: nop
0954: nop
0956: nop
0958: nop
095A: nop
095C: nop
095E: nop
0960: nop
0962: nop
0964: nop
0966: nop
0968: nop
096A: nop
096C: nop
096E: nop
0970: nop
0972: nop
0974: nop
0976: nop
0978: nop
097A: nop
097C: nop
097E: nop
0980: nop
0982: nop
0984: nop
0986: nop
0988: nop
098A: nop
098C: nop
098E: nop
0990: nop
0992: nop
0994: nop
0996: nop
0998: nop
099A: nop
099C: nop
099E: nop
09A0: nop
09A2: nop
09A4: nop
09A6: nop
09A8: nop
09AA: nop
09AC: nop
09AE: nop
09B0: nop
09B2: nop
09B4: nop
09B6: nop
09B8: nop
09BA: nop
09BC: nop
09BE: nop
09C0: nop
09C2: nop
09C4: nop
09C6: nop
09C8: nop
09CA: nop
09CC: nop
09CE: nop
09D0: nop
09D2: nop
09D4: nop
09D6: nop
09D8: nop
09DA: nop
09DC: nop
09DE: nop
09E0: nop
09E2: nop
09E4: nop
09E6: nop
09E8: nop
09EA: nop
09EC: nop
09EE: nop
09F0: nop
09F2: nop
09F4: nop
09F6: nop
09F8: nop
09FA: nop
09FC: nop
09FE: nop
0A00: nop
0A02: nop
0A04: nop
0A06: nop
0A08: nop
0A0A: nop
0A0C: nop
0A0E: nop
0A10: nop
0A12: nop
0A14: nop
0A16: nop
0A18: nop
0A1A: nop
0A1C: nop
0A1E: nop
0A20: nop
0A22: nop
0A24: nop
0A26: nop
0A28: nop
0A2A: nop
0A2C: nop
0A2E: nop
0A30: nop
0A32: nop
0A34: nop
0A36: nop
0A38: nop
0A3A: nop
0A3C: nop
0A3E: nop
0A40: nop
0A42: nop
0A44: nop
0A46: nop
0A48: nop
0A4A: nop
0A4C: nop
0A4E: nop
0A50: nop
0A52: nop
0A54: nop
0A56: nop
0A58: nop
0A5A: nop
0A5C: nop
0A5E: nop
0A60: nop
0A62: nop
0A64: nop
0A66: nop
0A68: nop
0A6A: nop
0A6C: nop
0A6E: nop
0A70: nop
0A72: nop
0A74: nop
0A76: nop
0A78: nop
0A7A: nop
0A7C: nop
0A7E: nop
0A80: nop
0A82: nop
0A84: nop
0A86: nop
0A88: nop
0A8A: nop
0A8C: nop
0A8E: nop
0A90: nop
0A92: nop
0A94: nop
0A96: nop
0A98: nop
0A9A: nop
0A9C: nop
0A9E: nop
0AA0: nop
0AA2: nop
0AA4: nop
0AA6: nop
0AA8: nop
0AAA: nop
0AAC: nop
0AAE: nop
0AB0: nop
0AB2: nop
0AB4: nop
0AB6: nop
0AB8: nop
0ABA: nop
0ABC: nop
0ABE: nop
0AC0: nop
0AC2: nop
0AC4: nop
0AC6: nop
0AC8: nop
0ACA: nop
0ACC: nop
0ACE: nop
0AD0: nop
0AD2: nop
0AD4: nop
0AD6: nop
0AD8: nop
0ADA: nop
0ADC: nop
0ADE: nop
0AE0: nop
0AE2: nop
0AE4: nop
0AE6: nop
0AE8: nop
0AEA: nop
0AEC: nop
0AEE: nop
0AF0: nop
0AF2: nop
0AF4: nop
0AF6: nop
0AF8: nop
0AFA: nop
0AFC: nop
0AFE: nop
0B00: nop
0B02: nop
0B04: nop
0B06: nop
0B08: nop
0B0A: nop
0B0C: nop
0B0E: nop
0B10: nop
0B12: nop
0B14: nop
0B16: nop
0B18: nop
0B1A: nop
0B1C: nop
0B1E: nop
0B20: nop
0B22: nop
0B24: nop
0B26: nop
0B28: nop
0B2A: nop
0B2C: nop
0B2E: nop
0B30: nop
0B32: nop
0B34: nop
0B36: nop
0B38: nop
0B3A: nop
0B3C: nop
0B3E: nop
0B40: nop
0B42: nop
0B44: nop
0B46: nop
0B48: nop
0B4A: nop
0B4C: nop
0B4E: nop
0B50: nop
0B52: nop
0B54: nop
0B56: nop
0B58: nop
0B5A: nop
0B5C: nop
0B5E: nop
0B60: nop
0B62: nop
0B64: nop
0B66: nop
0B68: nop
0B6A: nop
0B6C: nop
0B6E: nop
0B70: nop
0B72: nop
0B74: nop
0B76: nop
0B78: nop
0B7A: nop
0B7C: nop
0B7E: nop
0B80: nop
0B82: nop
0B84: nop
0B86: nop
0B88: nop
0B8A: nop
0B8C: nop
0B8E: nop
0B90: nop
0B92: nop
0B94: nop
0B96: nop
0B98: nop
0B9A: nop
0B9C: nop
0B9E: nop
0BA0: nop
0BA2: nop
0BA4: nop
0BA6: nop
0BA8: nop
0BAA: nop
0BAC: nop
0BAE: nop
0BB0: nop
0BB2: nop
0BB4: nop
0BB6: nop
0BB8: nop
0BBA: nop
0BBC: nop
0BBE: nop
0BC0: nop
0BC2: nop
0BC4: nop
0BC6: nop
0BC8: nop
0BCA: nop
0BCC: nop
0BCE: nop
0BD0: nop
0BD2: nop
0BD4: nop
0BD6: nop
0BD8: nop
0BDA: nop
0BDC: nop
0BDE: nop
0BE0: nop
0BE2: nop
0BE4: nop
0BE6: nop
0BE8: nop
0BEA: nop
0BEC: nop
0BEE: nop
0BF0: nop
0BF2: nop
0BF4: nop
0BF6: nop
0BF8: nop
0BFA: nop
0BFC: nop
0BFE: nop
0C00: nop
0C02: nop
0C04: nop
0C06: nop
0C08: nop
0C0A: nop
0C0C: nop
0C0E: nop
0C10: nop
0C12: nop
0C14: nop
0C16: nop
0C18: nop
0C1A: nop
0C1C: nop
0C1E: nop
0C20: nop
0C22: nop
0C24: nop
0C26: nop
0C28: nop
0C2A: nop
0C2C: nop
0C2E: nop
0C30: nop
0C32: nop
0C34: nop
0C36: nop
0C38: nop
0C3A: nop
0C3C: nop
0C3E: nop
0C40: nop
0C42: nop
0C44: nop
0C46: nop
0C48: nop
0C4A: nop
0C4C: nop
0C4E: nop
0C50: nop
0C52: nop
0C54: nop
0C56: nop
0C58: nop
0C5A: nop
0C5C: nop
0C5E: nop
0C60: nop
0C62: nop
0C64: nop
0C66: nop
0C68: nop
0C6A: nop
0C6C: nop
0C6E: nop
0C70: nop
0C72: nop
0C74: nop
0C76: nop
0C78: nop
0C7A: nop
0C7C: nop
0C7E: nop
0C80: nop
0C82: nop
0C84: nop
0C86: nop
0C88: nop
0C8A: nop
0C8C: nop
0C8E: nop
0C90: nop
0C92: nop
0C94: nop
0C96: nop
0C98: nop
0C9A: nop
0C9C: nop
0C9E: nop
0CA0: nop
0CA2: nop
0CA4: nop
0CA6: nop
0CA8: nop
0CAA: nop
0CAC: nop
0CAE: nop
0CB0: nop
0CB2: nop
0CB4: nop
0CB6: nop
0CB8: nop
0CBA: nop
0CBC: nop
0CBE: nop
0CC0: nop
0CC2: nop
0CC4: nop
0CC6: nop
0CC8: nop
0CCA: nop
0CCC: nop
0CCE: nop
0CD0: nop
0CD2: nop
0CD4: nop
0CD6: nop
0CD8: nop
0CDA: nop
0CDC: nop
0CDE: nop
0CE0: nop
0CE2: nop
0CE4: nop
0CE6: nop
0CE8: nop
0CEA: nop
0CEC: nop
0CEE: nop
0CF0: nop
0CF2: nop
0CF4: nop
0CF6: nop
0CF8: nop
0CFA: nop
0CFC: nop
0CFE: nop
0D00: nop
0D02: nop
0D04: nop
0D06: nop
0D08: nop
0D0A: nop
0D0C: nop
0D0E: nop
0D10: nop
0D12: nop
0D14: nop
0D16: nop
0D18: nop
0D1A: nop
0D1C: nop
0D1E: nop
0D20: nop
0D22: nop
0D24: nop
0D26: nop
0D28: nop
0D2A: nop
0D2C: nop
0D2E: nop
0D30: nop
0D32: nop
0D34: nop
0D36: nop
0D38: nop
0D3A: nop
0D3C: nop
0D3E: nop
0D40: nop
0D42: nop
0D44: nop
0D46: nop
0D48: nop
0D4A: nop
0D4C: nop
0D4E: nop
0D50: nop
0D52: nop
0D54: nop
0D56: nop
0D58: nop
0D5A: nop
0D5C: nop
0D5E: nop
0D60: nop
0D62: nop
0D64: nop
0D66: nop
0D68: nop
0D6A: nop
0D6C: nop
0D6E: nop
0D70: nop
0D72: nop
0D74: nop
0D76: nop
0D78: nop
0D7A: nop
0D7C: nop
0D7E: nop
0D80: nop
0D82: nop
0D84: nop
0D86: nop
0D88: nop
0D8A: nop
0D8C: nop
0D8E: nop
0D90: nop
0D92: nop
0D94: nop
0D96: nop
0D98: nop
0D9A: nop
0D9C: nop
0D9E: nop
0DA0: nop
0DA2: nop
0DA4: nop
0DA6: nop
0DA8: nop
0DAA: nop
0DAC: nop
0DAE: nop
0DB0: nop
0DB2: nop
0DB4: nop
0DB6: nop
0DB8: nop
0DBA: nop
0DBC: nop
0DBE: nop
0DC0: nop
0DC2: nop
0DC4: nop
0DC6: nop
0DC8: nop
0DCA: nop
0DCC: nop
0DCE: nop
0DD0: nop
0DD2: nop
0DD4: nop
0DD6: nop
0DD8: nop
0DDA: nop
0DDC: nop
0DDE: nop
0DE0: nop
0DE2: nop
0DE4: nop
0DE6: nop
0DE8: nop
0DEA: nop
0DEC: nop
0DEE: nop
0DF0: nop
0DF2: nop
0DF4: nop
0DF6: nop
0DF8: nop
0DFA: nop
0DFC: nop
0DFE: nop
0E00: nop
0E02: nop
0E04: nop
0E06: nop
0E08: nop
0E0A: nop
0E0C: nop
0E0E: nop
0E10: nop
0E12: nop
0E14: nop
0E16: nop
0E18: nop
0E1A: nop
0E1C: nop
0E1E: nop
0E20: nop
0E22: nop
0E24: nop
0E26: nop
0E28: nop
0E2A: nop
0E2C: nop
0E2E: nop
0E30: nop
0E32: nop
0E34: nop
0E36: nop
0E38: nop
0E3A: nop
0E3C: nop
0E3E: nop
0E40: nop
0E42: nop
0E44: nop
0E46: nop
0E48: nop
0E4A: nop
0E4C: nop
0E4E: nop
0E50: nop
0E52: nop
0E54: nop
0E56: nop
0E58: nop
0E5A: nop
0E5C: nop
0E5E: nop
0E60: nop
0E62: nop
0E64: nop
0E66: nop
0E68: nop
0E6A: nop
0E6C: nop
0E6E: nop
0E70: nop
0E72: nop
0E74: nop
0E76: nop
0E78: nop
0E7A: nop
0E7C: nop
0E7E: nop
0E80: nop
0E82: nop
0E84: nop
0E86: nop
0E88: nop
0E8A: nop
0E8C: nop
0E8E: nop
0E90: nop
0E92: nop
0E94: nop
0E96: nop
0E98: nop
0E9A: nop
0E9C: nop
0E9E: nop
0EA0: nop
0EA2: nop
0EA4: nop
0EA6: nop
0EA8: nop
0EAA: nop
0EAC: nop
0EAE: nop
0EB0: nop
0EB2: nop
0EB4: nop
0EB6: nop
0EB8: nop
0EBA: nop
0EBC: nop
0EBE: nop
0EC0: nop
0EC2: nop
0EC4: nop
0EC6: nop
0EC8: nop
0ECA: nop
0ECC: nop
0ECE: nop
0ED0: nop
0ED2: nop
0ED4: nop
0ED6: nop
0ED8: nop
0EDA: nop
0EDC: nop
0EDE: nop
0EE0: nop
0EE2: nop
0EE4: nop
0EE6: nop
0EE8: nop
0EEA: nop
0EEC: nop
0EEE: nop
0EF0: nop
0EF2: nop
0EF4: nop
0EF6: nop
0EF8: nop
0EFA: nop
0EFC: nop
0EFE: nop
0F00: nop
0F02: nop
0F04: nop
0F06: nop
0F08: nop
0F0A: nop
0F0C: nop
0F0E: nop
0F10: nop
0F12: nop
0F14: nop
0F16: nop
0F18: nop
0F1A: nop
0F1C: nop
0F1E: nop
0F20: nop
0F22: nop
0F24: nop
0F26: nop
0F28: nop
0F2A: nop
0F2C: nop
0F2E: nop
0F30: nop
0F32: nop
0F34: nop
0F36: nop
0F38: nop
0F3A: nop
0F3C: nop
0F3E: nop
0F40: nop
0F42: nop
0F44: nop
0F46: nop
0F48: nop
0F4A: nop
0F4C: nop
0F4E: nop
0F50: nop
0F52: nop
0F54: nop
0F56: nop
0F58: nop
0F5A: nop
0F5C: nop
0F5E: nop
0F60: nop
0F62: nop
0F64: nop
0F66: nop
0F68: nop
0F6A: nop
0F6C: nop
0F6E: nop
0F70: nop
0F72: nop
0F74: nop
0F76: nop
0F78: nop
0F7A: nop
0F7C: nop
0F7E: nop
0F80: nop
0F82: nop
0F84: nop
0F86: nop
0F88: nop
0F8A: nop
0F8C: nop
0F8E: nop
0F90: nop
0F92: nop
0F94: nop
0F96: nop
0F98: nop
0F9A: nop
0F9C: nop
0F9E: nop
0FA0: nop
0FA2: nop
0FA4: nop
0FA6: nop
0FA8: nop
0FAA: nop
0FAC: nop
0FAE: nop
0FB0: nop
0FB2: nop
0FB4: nop
0FB6: nop
0FB8: nop
0FBA: nop
0FBC: nop
0FBE: nop
0FC0: nop
0FC2: nop
0FC4: nop
0FC6: nop
0FC8: nop
0FCA: nop
0FCC: nop
0FCE: nop
0FD0: nop
0FD2: nop
0FD4: nop
0FD6: nop
0FD8: nop
0FDA: nop
0FDC: nop
0FDE: nop
0FE0: nop
0FE2: nop
0FE4: nop
0FE6: nop
0FE8: nop
0FEA: nop
0FEC: nop
0FEE: nop
0FF0: nop
0FF2: nop
0FF4: nop
0FF6: nop
0FF8: nop
0FFA: nop
0FFC: nop
0FFE: nop
C pressed
C released
